…
```r
all_year <- all_kel2 %>% 
  group_by(diagnosis, tahun_daftar) %>% 
  count() %>% 
  print(n = 7)
```

```
## Simple feature collection with 14 features and 3 fields
## Geometry type: MULTIPOINT
## Dimension:     XY
## Bounding box:  xmin: 383744.8 ymin: 510209.5 xmax: 503623.9 ymax: 689186
## Projected CRS: Kertau (RSO) / RSO Malaya (m)
## # A tibble: 14 × 4
##   diagnosis     tahun_daftar     n                                      geometry
## * <chr>                <dbl> <int>                              <MULTIPOINT [m]>
## 1 Enteric_fever         2016    58 ((432473 614766), (440575 642935), (443305 6…
## 2 Enteric_fever         2017    38 ((433570.9 638437.6), (452955.6 553066.8), (…
## 3 Enteric_fever         2018    45 ((424338.8 564236), (428651.1 629950.6), (44…
## 4 Enteric_fever         2019    14 ((421570.7 624471.3), (421615.8 624455.7), (…
## 5 Enteric_fever         2020    13 ((439694.6 535567.6), (448824 655232.5), (45…
## 6 Enteric_fever         2021     5 ((451311.6 642758.7), (469403.4 616091.5), (…
## 7 Enteric_fever         2022    39 ((453733.2 654570.5), (456983.6 542923.7), (…
## # ℹ 7 more rows
```
…
